Algoritmos Genéticos aplicados al recorrido de Parques Nacionales
…
## Cargando paquete requerido: geosphere

Set de datos Extraídos de Sistema de Información de
Biodiversidad (https://sib.gob.ar/listado_parques.php?accion=parques)

## New names:
## • `` -> `...3`
## • `` -> `...4`
## • `` -> `...5`
## • `` -> `...6`
## • `` -> `...7`
## • `` -> `...8`
## • `` -> `...9`

## # A tibble: 57 × 9
##    Areas `55`  ...3  ...4  ...5  ...6  ...7  ...8  ...9 
##    <chr> <chr> <chr> <chr> <chr> <chr> <chr> <chr> <chr>
##  1 "Sup… "182…  <NA>  <NA> <NA>   <NA> <NA>  <NA>  <NA> 
##  2 "REG… "\u0… "INS… "A\u… SUPE… "PRO… LATI… LONG… ECOR…
##  3 "Cen… "Par… "Ley… "202… 6614… "C\u… -30.… -62.… <NA> 
##  4 "Cen… "Par… "Ley… "200… 89706 "San… -31.… -69.… Alto…
##  5 "Cen… "Par… "Ley… "199… 35396 "C\u… -31.… -64.… Chac…
##  6 "Cen… "Par… "Ley… "199… 1660… "San… -29.… -69.… Alto…
##  7 "Cen… "Par… "Ley… "199… 73785 "San… -32.… -67.… Chac…
##  8 "Cen… "Par… "Ley… "199… 2138… "La … -29.… -67.… Mont…
##  9 "Cen… "Par… "Ley… "201… 44019 "COR… -30.… -65.… Chac…
## 10 "Cen… "Res… "Dec… "202… 450   "C\u… -32.… -64.… <NA> 
## # ℹ 47 more rows
…
